kd_hari,jam_mulai,jam_akhir,mata_kuliah,kelas,semester,prodi,kd_dosen1,kd_dosen2,ruang
1,1,3,Matematika,A,1,Pendidikan Matematika,MUN,MUN,GBK
2,2,3,Matematika Diskrit,C,6,Pendidikan Matematika,MUN,MUN,GBK
3,8,9,Matematika Susah,D,2,Pendidikan Matematika,MUN,,GBK
